\relax 
\citation{Strassen}
\citation{StrassenReloaded}
\citation{Strassen}
\citation{BLIS}
\citation{StrassenReloaded}
\@writefile{toc}{\contentsline {section}{\numberline {1}Introduction}{1}}
\citation{GSKNN}
\@writefile{toc}{\contentsline {section}{\numberline {2}General Matrix Multiplication}{3}}
\@writefile{toc}{\contentsline {subsection}{\numberline {2.1}Naive Implementation}{3}}
\@writefile{lof}{\contentsline {figure}{\numberline {1}{\ignorespaces Naive triple loop implementation for {\tt  {GEMM}}.}}{3}}
\newlabel{fig:triple}{{1}{3}}
\@writefile{toc}{\contentsline {subsection}{\numberline {2.2}Computing with Submatrices}{3}}
\citation{BLIS}
\citation{BLIS}
\citation{Strassen}
\citation{StrassenReloaded}
\@writefile{toc}{\contentsline {subsection}{\numberline {2.3}GotoBLAS algorithm for {\tt  {GEMM}} in BLIS}{4}}
\@writefile{toc}{\contentsline {section}{\numberline {3}Strassen's Algorithm}{4}}
\@writefile{toc}{\contentsline {subsection}{\numberline {3.1}Classic Strassen's Algorithm}{4}}
\newlabel{eqn:stra}{{3.1}{4}}
\@writefile{lof}{\contentsline {figure}{\numberline {2}{\ignorespaces GotoBLAS algorithm for {\tt  {GEMM}} in BLIS \cite  {BLIS}.}}{5}}
\newlabel{fig:blis}{{2}{5}}
\newlabel{eqn:allops}{{3.1}{5}}
\citation{StrassenReloaded}
\newlabel{e:genops}{{1}{6}}
\@writefile{toc}{\contentsline {subsection}{\numberline {3.2}A Practical Implementation}{6}}
\@writefile{lof}{\contentsline {figure}{\numberline {3}{\ignorespaces GotoBLAS algorithm for {\tt  {GSKNN}} in BLIS with Strassen.}}{6}}
\newlabel{fig:stra}{{3}{6}}
\citation{StrassenReloaded}
\citation{StrassenReloaded}
\@writefile{lof}{\contentsline {figure}{\numberline {4}{\ignorespaces Illustration representing the computation of the general operation (1\hbox {}) (from \cite  {StrassenReloaded} with the permission of the author).}}{7}}
\newlabel{fig:genops}{{4}{7}}
\citation{GSKNN}
\citation{GSKNN}
\citation{GSKNN}
\@writefile{toc}{\contentsline {section}{\numberline {4}K-Nearest Neighbors Algorithm}{8}}
\@writefile{toc}{\contentsline {subsection}{\numberline {4.1}Problem Definition}{8}}
\@writefile{toc}{\contentsline {subsection}{\numberline {4.2}General Stride $k$ Nearest Neighbors}{8}}
\citation{GSKNN}
\citation{GSKNN}
\citation{GSKNN}
\@writefile{toc}{\contentsline {section}{\numberline {5}K-Nearest Neighbors with Strassen's Algorithm}{9}}
\citation{GSKNN}
\@writefile{lof}{\contentsline {figure}{\numberline {5}{\ignorespaces {\tt  {GSKNN}} approach to $k$-Nearest Neighbors \cite  {GSKNN}.}}{10}}
\newlabel{fig:gsknn}{{5}{10}}
\@writefile{toc}{\contentsline {section}{\numberline {6}Experimental Setup}{10}}
\@writefile{lof}{\contentsline {figure}{\numberline {6}{\ignorespaces {\tt  {GSKNN}} Micro-kernel \cite  {GSKNN}.}}{11}}
\newlabel{fig:gsknnmicro}{{6}{11}}
\@writefile{toc}{\contentsline {section}{\numberline {7}Results}{11}}
\newlabel{e:egflops1}{{3}{11}}
\@writefile{lof}{\contentsline {figure}{\numberline {7}{\ignorespaces {\tt  {GSKNN}} with Strassen.}}{12}}
\newlabel{fig:gsknnstra}{{7}{12}}
\@writefile{lof}{\contentsline {figure}{\numberline {8}{\ignorespaces {\tt  {GSKNN}} Micro-kernel with Strassen.}}{13}}
\newlabel{fig:gsknnmicrostra}{{8}{13}}
\@writefile{lof}{\contentsline {figure}{\numberline {9}{\ignorespaces Single-core performance of {\tt  {GSKNN}} with Strassen (blue) vs. {\tt  {GSKNN}} without Strassen (red) on an Intel\textsuperscript  {\textregistered } Ivy-Bridge processor.}}{14}}
\newlabel{fig:perf1}{{9}{14}}
\@writefile{lof}{\contentsline {figure}{\numberline {10}{\ignorespaces 10-core performance of {\tt  {GSKNN}} with Strassen (blue) vs. {\tt  {GSKNN}} without Strassen (red) on an Intel\textsuperscript  {\textregistered } Ivy-Bridge processor.}}{15}}
\newlabel{fig:perf2}{{10}{15}}
\bibdata{mybib}
\bibcite{StrassenReloaded}{1}
\bibcite{Strassen}{2}
\@writefile{toc}{\contentsline {section}{\numberline {8}Conclusions}{16}}
\@writefile{toc}{\contentsline {section}{\numberline {9}Acknowledgements}{16}}
\bibcite{BLIS}{3}
\bibcite{GSKNN}{4}
\bibstyle{plain}
