\begin{thebibliography}{1}

\bibitem{StrassenReloaded}
Jianyu Huang, Tyler~M. Smith, Greg~M. Henry, and Robert~A. van~de Geijn.
\newblock Implementing strassen's algorithm with {BLIS}.
\newblock {\em CoRR}, abs/1605.01078, 2016.

\bibitem{Strassen}
Volker Strassen.
\newblock Gaussian elimination is not optimal.
\newblock {\em Numerische Mathematik}, 13(4):354--356, 1969.

\bibitem{BLIS}
Field~G. {V}an {Z}ee and Robert~A. {v}an~{d}e {G}eijn.
\newblock {BLIS}: A framework for rapidly instantiating {BLAS} functionality.
\newblock {\em ACM Transactions on Mathematical Software}, 41(3):14:1--14:33,
  June 2015.

\bibitem{GSKNN}
Chenhan~D. Yu, Jianyu Huang, Woody Austin, Bo~Xiao, and George Biros.
\newblock Performance optimization for the k-nearest neighbors kernel on x86
  architectures.
\newblock In {\em Proceedings of the International Conference for High
  Performance Computing, Networking, Storage and Analysis}, SC '15, pages
  7:1--7:12, New York, NY, USA, 2015. ACM.

\end{thebibliography}
